<?xml version="1.0" encoding="UTF-8" standalone="no"?>
<svg
   xmlns:dc="http://purl.org/dc/elements/1.1/"
   xmlns:cc="http://creativecommons.org/ns#"
   xmlns:rdf="http://www.w3.org/1999/02/22-rdf-syntax-ns#"
   xmlns:svg="http://www.w3.org/2000/svg"
   xmlns="http://www.w3.org/2000/svg"
   xmlns:sodipodi="http://sodipodi.sourceforge.net/DTD/sodipodi-0.dtd"
   xmlns:inkscape="http://www.inkscape.org/namespaces/inkscape"
   version="1.1"
   id="_x32_"
   x="0px"
   y="0px"
   viewBox="0 0 512 512"
   style="width: 256px; height: 256px; opacity: 1;"
   xml:space="preserve"
   sodipodi:docname="icon_shop.svg"
   inkscape:version="1.0.1 (3bc2e813f5, 2020-09-07)"><metadata
   id="metadata21"><rdf:RDF><cc:Work
       rdf:about=""><dc:format>image/svg+xml</dc:format><dc:type
         rdf:resource="http://purl.org/dc/dcmitype/StillImage" /></cc:Work></rdf:RDF></metadata><defs
   id="defs19" /><sodipodi:namedview
   pagecolor="#ffffff"
   bordercolor="#666666"
   borderopacity="1"
   objecttolerance="10"
   gridtolerance="10"
   guidetolerance="10"
   inkscape:pageopacity="0"
   inkscape:pageshadow="2"
   inkscape:window-width="822"
   inkscape:window-height="480"
   id="namedview17"
   showgrid="false"
   inkscape:zoom="1.96875"
   inkscape:cx="181.07937"
   inkscape:cy="256"
   inkscape:window-x="2147"
   inkscape:window-y="467"
   inkscape:window-maximized="0"
   inkscape:current-layer="_x32_" />
<style
   type="text/css"
   id="style2">
	.st0{fill:#4B4B4B;}
</style>
<g
   id="g14"
   style="fill:#ffffff">
	<path
   class="st0"
   d="M147.244,207.801c21.256,0,38.485-17.237,38.485-38.485l14.052-147.244h-61.569l-29.454,147.244   C108.759,190.564,125.988,207.801,147.244,207.801z"
   style="fill:#ffffff"
   id="path4" />
	<path
   class="st0"
   d="M256.004,207.801c21.248,0,38.477-17.237,38.477-38.485l-7.689-147.244h-61.576l-7.697,147.244   C217.518,190.564,234.748,207.801,256.004,207.801z"
   style="fill:#ffffff"
   id="path6" />
	<path
   class="st0"
   d="M364.763,207.801c21.249,0,38.478-17.237,38.478-38.485L373.794,22.071h-61.568l14.052,147.244   C326.278,190.564,343.507,207.801,364.763,207.801z"
   style="fill:#ffffff"
   id="path8" />
	<path
   class="st0"
   d="M460.798,22.071h-61.569l35.808,147.244c0,17.988,12.391,32.972,29.075,37.188V457.73h-57.997V287.744H259.818   V457.73H47.896V206.504c16.675-4.216,29.074-19.201,29.074-37.188l35.801-147.244H51.202L0,169.316   c0,12.687,6.218,23.85,15.698,30.864v289.75H496.31v-289.75c9.471-7.014,15.69-18.177,15.69-30.864L460.798,22.071z    M381.969,457.73h-98.006V311.896h98.006V457.73z"
   style="fill:#ffffff"
   id="path10" />
	<rect
   x="109.404"
   y="276.338"
   class="st0"
   width="85.577"
   height="85.577"
   style="fill:#ffffff"
   id="rect12" />
</g>
</svg>
